{
  "name": "Search Endpoint probabilistic",
  "endpoint": {
    "pattern": "/fhir/Patient/$match",
    "method": "POST"
  },
  "transformation": {
    "input": "JSON",
    "output": "JSON"
  },
  "constants": {
    "resourceType": "Bundle",
    "type": "searchset"
  },
  "inputTransforms": {
    "total": "$count(lookupRequests.jempiSearchAllProbabilistic.data.goldenRecords)",
    "entry": "$map(lookupRequests.jempiSearchAllProbabilistic.data.goldenRecords, function($v) {{'fullUrl': 'Patient/' & $v.goldenId, 'resource': {'resourceType': 'Patient','id': $v.goldenId,'name': {'given': [$v.demographicData.givenName],'family': $v.demographicData.familyName},'address': [{'city': $v.demographicData.city}],'birthDate': $v.demographicData.dob,'telecom': [{'value': $v.demographicData.phoneNumberMobile,'system': 'phone'}],'identifier': [{'system': $v.sourceId.facility,'value': $v.sourceId.patient}],'gender': $v.demographicData.gender}}})"
  },
  "inputMapping": {
    "constants.resourceType": "resourceType",
    "constants.type": "type",
    "transforms.total": "total",
    "transforms.entry": "entry"
  },
  "requests": {
    "lookup": [
      {
        "id": "jempiSearchAllProbabilistic",
        "forwardExistingRequestBody": true,
        "config": {
          "method": "post",
          "headers": {
            "contentType": "application/json"
          },
          "url": "http://openhim-mapping-mediator:3003/search-response-probabilistic"
        },
        "fhirResponse": true
      }
    ]
  }
}
